{
    "schemes": [
        "http",
        "https"
    ],
    "swagger": "2.0",
    "info": {
        "description": "Just an example API",
        "title": "Example API",
        "contact": {}
    },
    "paths": {
        "/": {
            "get": {
                "description": "Just an example endpoint",
                "consumes": [
                    "application/json"
                ],
                "produces": [
                    "application/json"
                ],
                "tags": [
                    "example"
                ],
                "summary": "Example endpoint",
                "responses": {
                    "200": {
                        "description": ""
                    }
                }
            }
        }
    }
}